#set term qt noraise size 600,600
set term jpeg giant enhanced font arielx100 size 1024,1024 
folder='data'
#set xrange [0:1]
do for [i=0:1000:1]{
	set output "img/".i.".jpeg"
	plot folder.'/snap.'.i index 0 u 1:2 w lp pt 7 t ""
	#pause 1
}
