set term qt noraise size 600,600
#set term jpeg giant enhanced font arielx100 size 1024,1024 
set xrange [0:159]
set yrange [0:159]
set notics
folder='data'
do for [i=0:1000:5]{
#	set output "img/".i.".jpeg"
	splot folder.'/snap.'.i index 0 u 1:2:3 w p t ""
	pause 0.1
}
