set term X11 noraise size 800,400
set xrange [0:8]
set yrange [0:4]
set palette defined (0 "black", 1 "yellow")
do for [i=0:400:1]{
#		p 'data/snap.'.i u 1:2:3 w p pt 5 palette ps 1 t ''
		p 'data/density'index i u 1:2:3 w p pt 5 palette ps 2 t ''
		pause 0.3
	}
pause -1
